# 3ds Max Wavefront OBJ Exporter v0.99 - (c)2007 guruware
# File Created: 13.12.2021 15:44:09

mtllib Wall2.mtl

#
# object Box001
#

v  -70.5594 0.0000 264.2190
v  -70.5594 0.0000 248.9744
v  69.5033 0.0000 248.9744
v  69.5033 0.0000 264.2190
v  -70.5594 68.8056 264.2190
v  68.5575 68.8056 264.2190
v  68.5575 68.8056 248.9744
v  -70.5594 68.8056 248.9744
v  69.5033 67.8598 264.2190
v  69.4533 68.7555 264.2190
v  69.5033 67.8598 248.9744
v  69.4533 68.7555 248.9744
# 12 vertices

vn -0.5774 -0.5774 0.5774
vn -0.5774 -0.5774 -0.5774
vn 0.5774 -0.5774 -0.5774
vn 0.5774 -0.5774 0.5774
vn -0.5774 0.5774 0.5774
vn 0.0199 0.7130 0.7009
vn 0.0199 0.7130 -0.7009
vn -0.5774 0.5774 -0.5774
vn 0.7130 0.0199 0.7009
vn 0.5743 0.5743 0.5834
vn 0.7130 0.0199 -0.7009
vn 0.5743 0.5743 -0.5834
# 12 vertex normals

vt 1.0000 0.4144 0.0000
vt 1.0000 0.5856 0.0000
vt 0.0000 0.5856 0.0000
vt 0.0000 0.4144 0.0000
vt 0.0000 0.4144 1.0000
vt 0.9932 0.4144 1.0000
vt 0.9932 0.5856 1.0000
vt 0.0000 0.5856 1.0000
vt 0.0000 0.0000 0.4144
vt 1.0000 0.0000 0.4144
vt 1.0000 0.9863 0.4144
vt 0.9996 0.9993 0.4144
vt 0.9932 1.0000 0.4144
vt 0.0000 1.0000 0.4144
vt 0.4144 0.0000 1.0000
vt 0.5856 0.0000 1.0000
vt 0.5856 0.9863 1.0000
vt 0.4144 0.9863 1.0000
vt 0.0000 0.0000 0.5856
vt 1.0000 0.0000 0.5856
vt 1.0000 1.0000 0.5856
vt 0.0068 1.0000 0.5856
vt 0.0004 0.9993 0.5856
vt 0.0000 0.9863 0.5856
vt 0.4144 0.0000 0.0000
vt 0.5856 0.0000 0.0000
vt 0.5856 1.0000 0.0000
vt 0.4144 1.0000 0.0000
vt 0.9996 0.4144 0.9993
vt 0.9996 0.5856 0.9993
vt 0.5856 0.9993 0.9996
vt 0.4144 0.9993 0.9996
# 32 texture coords

o Box001
g Box001
usemtl 02___Default
s 1
f 1/1/1 2/2/2 3/3/3 4/4/4 
f 5/5/5 6/6/6 7/7/7 8/8/8 
s 2
f 1/9/1 4/10/4 9/11/9 10/12/10 6/13/6 5/14/5 
s 4
f 4/15/4 3/16/3 11/17/11 9/18/9 
s 2
f 3/19/3 2/20/2 8/21/8 7/22/7 12/23/12 11/24/11 
s 4
f 2/25/2 1/26/1 5/27/5 8/28/8 
s 1
f 7/7/7 6/6/6 10/29/10 12/30/12 
s 4
f 9/18/9 11/17/11 12/31/12 10/32/10 
# 8 polygons

